1833.93,1000000.00
1816.61,999991.00
1763.54,999990.00
1675.51,999921.00
1669.66,999673.05
1605.71,999615.07
1597.90,999614.07
1585.50,999599.08
1576.57,999595.08
1576.34,999592.08
1567.49,999469.14
1531.56,999468.14
1473.60,999249.28
1406.29,999248.28
1381.26,997483.17
1376.94,994245.62
1373.99,994231.70
1369.83,953868.91
1359.35,951467.24
1352.59,854956.17
1307.32,843954.17
1276.32,749689.51
1275.82,78969.45
1262.56,25505.00
1210.05,13110.38
1203.92,210.51
1161.91,139.30
1157.40,89.47
1156.60,83.44
1154.52,81.05
1146.43,80.77
1134.44,80.77
1070.67,72.91
1047.65,57.53
977.73,57.53
967.08,57.53
950.79,40.22
908.12,36.76
907.37,35.03
907.35,35.03
906.74,35.03
870.15,35.03
852.79,35.03
848.40,28.70
838.53,28.70
837.10,25.77
832.72,25.77
827.27,25.36
802.30,25.12
802.12,25.12
800.69,25.12
789.53,25.12
787.45,25.12
761.12,25.12
756.13,23.03
751.08,22.66
740.05,20.63
729.07,20.63
720.63,18.95
716.99,18.33
712.63,16.75
709.21,16.75
701.46,16.36
699.46,16.36
681.17,16.36
665.74,16.36
664.31,14.60
662.26,14.11
647.58,14.04
639.83,14.04
639.53,14.04
632.17,13.94
631.74,13.94
630.92,13.94
620.74,13.94
616.27,13.93
595.25,13.93
590.07,13.93
578.86,13.93
571.91,13.93
566.51,10.69
564.23,10.69
561.16,10.69
560.71,10.69
560.47,10.69
556.67,10.68
556.19,10.68
552.88,10.68
537.20,10.68
535.78,8.82
526.32,8.66
525.47,7.26
520.99,7.26
520.14,7.24
515.31,7.23
506.41,7.23
505.92,7.23
502.84,7.23
500.29,7.22
498.74,7.21
491.79,7.21
491.23,5.78
488.03,5.03
487.63,4.39
486.86,4.22
485.32,4.22
483.02,3.97
482.15,3.64
481.67,3.57
480.88,3.35
