1833.93,1000000.00
1798.36,999950.00
1773.75,999150.34
1740.39,997752.47
1710.69,997453.18
1669.58,997403.31
1664.89,991982.11
1649.45,986541.05
1627.49,965797.72
1611.76,962615.76
1588.31,962567.63
1561.66,960596.34
1556.75,956283.26
1501.67,956235.44
1495.54,956139.82
1487.69,956092.01
1424.83,953227.96
1348.43,953132.64
1289.16,953084.99
1256.37,953037.33
1254.75,952989.68
1254.57,180.42
1252.48,85.69
1221.04,71.94
1124.64,66.57
1110.09,41.03
1109.55,30.90
1082.04,30.88
1057.07,30.88
1052.67,30.88
1011.69,30.75
978.30,30.72
950.05,26.07
927.95,26.01
871.13,25.97
844.82,23.91
805.97,23.91
789.75,18.61
789.49,18.54
788.27,18.53
782.45,10.54
775.97,10.53
773.95,10.53
748.31,10.52
742.92,10.47
736.66,10.45
725.67,10.45
719.54,10.37
718.30,10.31
710.55,10.31
709.89,10.03
709.05,10.02
707.43,9.92
706.28,9.91
696.83,9.90
682.78,9.90
678.64,9.89
673.60,9.74
661.90,9.74
651.06,9.71
647.56,9.70
647.06,8.04
645.72,7.99
634.32,7.99
616.62,7.33
615.96,7.32
610.63,6.86
604.29,6.61
600.25,6.58
597.40,6.48
597.38,6.48
595.76,6.47
583.82,6.46
576.28,6.45
574.62,6.14
573.95,3.17
565.03,2.94
563.76,2.93
562.09,2.90
556.00,2.78
555.81,2.70
554.01,2.67
550.94,2.65
548.99,2.61
548.30,2.19
547.84,2.16
546.67,1.48
544.93,1.48
543.71,1.48
543.66,1.45
