1833.93,1000000.00
1782.71,999933.00
1766.89,999924.00
1741.55,999923.00
1726.17,999922.00
1695.71,999858.01
1632.11,999802.02
1628.75,999398.18
1621.84,999394.18
1606.80,999270.27
1577.33,999242.29
1566.29,999241.29
1554.98,999240.29
1452.94,998707.83
1414.58,992965.85
1377.56,992964.86
1376.24,980984.12
1368.73,974298.05
1336.57,974297.08
1325.99,974296.10
1324.96,880324.17
1296.71,880323.29
1292.18,840701.95
1289.85,556341.87
1280.40,556341.32
1256.18,516027.96
1207.90,418909.06
1195.54,22068.06
1193.03,780.89
1190.37,176.62
1178.90,106.50
1176.86,86.05
1125.91,86.05
1113.18,83.63
1110.94,83.63
1081.96,83.59
1056.47,66.58
1050.74,55.88
1039.66,49.32
1021.74,49.32
997.27,47.34
995.43,40.46
990.06,40.46
981.12,40.46
978.66,39.07
968.16,35.95
931.29,35.89
927.10,35.21
923.39,35.21
876.95,34.01
876.89,29.63
831.45,29.63
750.01,29.63
743.93,29.63
740.30,29.63
737.13,29.63
734.98,29.63
730.10,19.14
718.75,19.14
716.96,18.51
713.65,18.51
712.79,18.51
700.46,18.51
673.36,17.71
669.74,17.71
660.47,17.71
659.97,17.71
650.44,16.60
648.20,15.69
644.30,14.66
643.73,14.53
636.61,13.27
629.73,13.27
616.88,12.95
615.49,12.95
614.39,12.95
600.36,11.82
600.03,11.01
583.78,11.00
583.47,11.00
580.54,11.00
580.14,10.31
577.01,9.49
573.17,9.49
557.57,9.37
555.33,9.06
553.23,9.06
549.29,9.06
530.21,9.06
524.07,7.90
518.30,7.59
517.74,5.51
515.04,5.51
514.72,5.51
512.98,5.51
511.86,4.90
510.68,4.83
508.96,4.83
505.88,4.83
505.22,4.80
500.85,4.76
497.16,4.76
492.54,4.76
492.54,3.78
491.19,3.78
490.39,3.28
